3:28
Done
Page 1 of 10
POWERSHOP
Powershop New Zealand Limited PO Box 392 Masterton 5840
Phone 0800 462 668
GST Number 97-988-340
Bill Information
08 June 2018
Account 900240751
Faults and emergencies
Call Powershop on 0800 462 668
Select 1 for faults
Usage and Charges
(tor the period 7 May 2018 - 6 June 201
41 Burgess Road (ICP 0000081316TR29A)
Peri
Rate (incl GST)
Quantity
Total
Seasonal Energ
212633203:1 Night
212633203:2 Day
Daily charge (206.21 c/day x 31 days)
Property charges for this period
7 May - 6 Jun
7 May - 6 Jun
20.95 c/kWh
506 kWh
$106.01
$276.75
$63.93
20.95 c/kWh
1321 kWh
1827 kWh
$446.69
Total charges for this period
$446.69
Page 2 of 10
POWERSHOP
Powershop New Zealand Limited PO Box 392 Masterton 5840
Phone 0800 462 668
GST Number 97-988-340
Powerpacks